# Blender v2.79 (sub 0) OBJ File: 'RockCrystal3.blend'
# www.blender.org
mtllib RockCrystal.mtl
o Cylinder
v 0.420064 -3.000000 0.874781
v 0.513904 4.000000 1.263618
v -0.155430 -3.000000 0.705055
v -0.445253 4.000000 0.980742
v -0.296191 -3.000000 0.121800
v -0.679853 4.000000 0.008650
v 0.138543 -3.000000 -0.291729
v 0.044703 4.000000 -0.680566
v 0.714037 -3.000000 -0.122004
v 1.003860 4.000000 -0.397690
v 0.854797 -3.000000 0.461251
v 1.238460 4.000000 0.574402
v 0.279303 5.000000 0.291526
v 0.664697 0.767478 0.714908
v 1.268941 2.972996 1.697210
v 0.300387 0.836739 0.736672
v 0.661757 3.088431 1.733482
v 0.119796 0.975262 0.443089
v 0.360771 3.319301 1.244177
v 0.303514 1.044523 0.127743
v 0.666968 3.434736 0.718601
v 0.667824 0.975262 0.105980
v 1.274152 3.319301 0.682329
v 0.848416 0.836739 0.399563
v 1.575138 3.088431 1.171633
v 1.208374 4.345650 1.598748
v 0.462551 0.916085 -0.202533
v 1.039952 2.147910 -1.338497
v 0.592590 1.009639 -0.017399
v 1.256685 2.303833 -1.029940
v 0.488660 1.168489 0.137205
v 1.083468 2.568583 -0.772267
v 0.254691 1.233786 0.106675
v 0.693520 2.677411 -0.823150
v 0.124652 1.140232 -0.078459
v 0.476788 2.521488 -1.131707
v 0.228582 0.981382 -0.233063
v 0.650004 2.256738 -1.389381
v 1.185470 3.251797 -1.728744
v -0.155910 -0.118158 0.433506
v -1.018587 1.113667 0.758999
v -0.119466 -0.024604 0.210220
v -0.957847 1.269590 0.386855
v 0.062929 0.134246 0.172330
v -0.653854 1.534340 0.323705
v 0.208880 0.199543 0.357727
v -0.410602 1.643168 0.632699
v 0.172436 0.105989 0.581012
v -0.471342 1.487245 1.004842
v -0.009959 -0.052861 0.618902
v -0.775334 1.222495 1.067992
v -0.965547 1.687707 0.784477
v 0.165873 -3.031082 0.353153
v -0.508268 2.906675 -0.130283
v -0.370863 -3.115572 0.607664
v -1.073074 2.817767 0.137538
v -0.838713 -3.284550 0.272162
v -1.565391 2.639951 -0.215510
v -0.769828 -3.369040 -0.317852
v -1.492903 2.551044 -0.836380
v -0.233092 -3.284550 -0.572363
v -0.928098 2.639952 -1.104202
v 0.234759 -3.115572 -0.236861
v -0.435780 2.817767 -0.751153
v -1.229452 3.688382 -0.647455
v -1.324171 -3.558305 0.996751
v -1.484542 1.427535 0.953916
v -1.736367 -3.642795 1.424485
v -2.171536 1.286720 1.666805
v -2.292581 -3.811773 1.275919
v -3.098560 1.005089 1.419196
v -2.436599 -3.896263 0.699620
v -3.338591 0.864273 0.458698
v -2.024403 -3.811773 0.271887
v -2.651597 1.005089 -0.254191
v -1.468189 -3.642795 0.420452
v -1.724573 1.286720 -0.006582
v -2.983033 3.161160 0.553668
v -1.910662 0.200231 0.882522
v -1.342039 1.876898 0.800944
v -1.779199 0.153519 1.083700
v -1.122934 1.799045 1.136240
v -1.881933 0.175288 1.304853
v -1.294157 1.835327 1.504830
v -2.116131 0.243770 1.324829
v -1.684486 1.949463 1.538122
v -2.247594 0.290482 1.123651
v -1.903591 2.027316 1.202826
v -2.144860 0.268712 0.902498
v -1.732368 1.991034 0.834237
v -1.199536 2.974034 1.210845
v -2.846330 -0.443408 0.739688
v -4.433015 0.278306 0.419129
v -2.811800 -0.499869 0.503982
v -4.375465 0.184205 0.026286
v -2.687705 -0.347068 0.358416
v -4.168640 0.438873 -0.216324
v -2.598140 -0.137807 0.448555
v -4.019366 0.787642 -0.066092
v -2.632670 -0.081346 0.684261
v -4.076916 0.881742 0.326750
v -2.756765 -0.234147 0.829827
v -4.283741 0.627074 0.569360
v -5.169601 1.049596 -0.085438
vt 0.710032 0.000000
vt 0.756952 3.500000
vt 0.277374 3.500000
vt 0.422285 0.000000
vt 0.147472 0.000000
vt 0.009629 3.500000
vt 0.495675 3.500000
vt 0.439100 0.000000
vt 0.351905 0.000000
vt 0.160073 3.500000
vt 0.522352 3.500000
vt 0.569272 0.000000
vt 1.001930 3.500000
vt 0.857019 0.000000
vt 0.756952 0.868191
vt 1.119230 1.212799
vt 0.639652 1.354237
vt 0.561002 0.000000
vt 0.698845 3.500000
vt 0.212799 3.500000
vt 0.269374 0.000000
vt 0.927399 0.000000
vt 1.119230 3.500000
vt 0.710032 0.062609
vt 0.422285 0.147472
vt 0.351905 0.439100
vt 0.569272 0.645865
vt 0.857019 0.561002
vt 0.927399 0.269374
vt 0.001930 0.500000
vt -0.477648 0.500000
vt -0.360348 1.000000
vt 0.495675 0.500000
vt 0.009629 0.500000
vt 0.354237 1.000000
vt 0.212799 0.500000
vt 0.698845 0.500000
vt 0.277374 0.500000
vt 0.756952 0.500000
vt 0.639652 1.000000
vt 0.522352 0.840283
vt 0.160073 0.495675
vt 0.639652 0.354237
vt 0.832349 0.883739
vt 1.134470 1.986498
vt 0.830879 2.044215
vt 0.650194 0.918370
vt 0.131664 0.918370
vt -0.366741 2.044215
vt -0.122089 2.159650
vt 0.278456 0.987631
vt 0.140700 2.217368
vt 0.436128 1.022261
vt 0.651757 0.022261
vt 0.833484 1.217368
vt 1.137076 1.159650
vt 0.833912 -0.012369
vt 0.651395 0.986498
vt 0.914183 1.044215
vt 0.700626 1.672825
vt 0.447010 0.987631
vt 0.158836 2.159650
vt -0.085817 2.044215
vt 0.300219 0.918370
vt -0.348605 1.986498
vt 0.142546 0.883739
vt 0.832349 0.142546
vt 0.650194 0.131664
vt 0.559898 0.278456
vt 0.651757 0.436128
vt 0.833912 0.447010
vt 0.924208 0.300219
vt 0.137076 0.159650
vt -0.166516 0.217368
vt 0.104187 0.672825
vt 0.877911 0.159650
vt 0.633259 0.044215
vt 0.700626 0.672825
vt 0.914183 0.044215
vt 1.158836 0.159650
vt 0.830879 0.044215
vt 1.134470 -0.013502
vt 1.104187 0.672825
vt 0.140700 0.217368
vt -0.122089 0.159650
vt -0.299374 0.672825
vt 0.601266 0.958043
vt 1.169248 1.573955
vt 1.014970 1.651917
vt 0.508699 1.004820
vt 0.508699 0.004820
vt 1.014970 0.651917
vt 0.886133 0.784292
vt 0.431397 0.084245
vt 0.744330 0.084245
vt 1.041734 0.784292
vt 0.846760 0.838705
vt 0.627346 0.116893
vt 0.446662 0.116893
vt 0.911575 0.838705
vt 1.065854 0.760744
vt 0.539230 0.070116
vt 0.019976 0.573955
vt -0.174998 0.628369
vt 0.092735 1.125899
vt 1.194690 0.628369
vt 0.616531 -0.009309
vt 0.614291 0.990691
vt 0.825002 1.628369
vt 1.019976 1.573955
vt 0.731275 0.958043
vt 0.731275 0.601266
vt 0.796295 0.508699
vt 0.744330 0.431397
vt 0.627346 0.446662
vt 0.562326 0.539230
vt 0.614291 0.616531
vt 0.738394 0.065854
vt 0.846760 -0.088425
vt 1.092735 0.364372
vt 1.364372 1.125899
vt 0.194690 0.628369
vt 0.065854 0.760744
vt 0.364372 1.125899
vt 0.014970 0.651917
vt 0.169248 0.573955
vt 0.846760 0.911575
vt 1.041734 0.886133
vt 1.092735 1.364372
vt 0.283247 0.440921
vt 0.120501 1.056834
vt 0.306572 1.134795
vt 0.394890 0.487698
vt 0.440267 0.487698
vt 0.021077 1.134795
vt 0.173073 1.267170
vt 0.531465 0.567123
vt 0.294699 1.321584
vt 0.604440 0.599771
vt 0.321137 0.599771
vt 0.183651 1.321584
vt -0.002421 1.243622
vt 0.209494 0.552994
vt 0.120501 0.056834
vt -0.033996 0.111247
vt 0.107761 0.343853
vt 0.586218 0.552994
vt 0.264329 1.243622
vt 0.112333 1.111247
vt 0.495021 0.473569
vt -0.009293 1.056834
vt 0.422045 0.440921
vt 0.422045 0.283247
vt 0.440267 0.394890
vt 0.531465 0.413835
vt 0.604440 0.321137
vt 0.586218 0.209494
vt 0.495021 0.190549
vt 0.264329 0.997579
vt 0.294699 1.183650
vt 0.017227 1.107761
vt 0.338147 0.267170
vt 0.306572 0.134795
vt 0.112333 0.111247
vt 0.264329 0.243622
vt 0.017227 0.343853
vt 0.294699 0.183651
vt 0.173073 0.338147
vt 0.017227 0.107761
vt 0.582937 0.984459
vt 0.245866 3.953337
vt -0.036537 3.908884
vt 0.314569 0.942214
vt -0.282696 3.819976
vt 0.080643 0.857725
vt 0.363919 0.857725
vt 0.607755 3.819976
vt 0.918190 3.775522
vt 0.658926 0.815480
vt 0.115086 0.815480
vt -0.246452 3.775522
vt 0.035951 3.819976
vt 0.383454 0.857725
vt 0.565142 0.953337
vt 0.875577 0.908884
vt 0.823727 1.344191
vt 0.282110 3.908884
vt 0.617379 0.942214
vt 0.618430 0.942214
vt 0.875577 3.908884
vt 0.565142 3.953337
vt 0.323423 0.984459
vt 0.582937 0.323423
vt 0.314569 0.196168
vt 0.080643 0.363919
vt 0.115086 0.658926
vt 0.383454 0.786182
vt 0.617379 0.618430
vt 0.035951 0.819976
vt -0.246452 0.775522
vt -0.114726 1.344191
vt 0.717304 0.819976
vt 0.963463 0.908884
vt 0.885274 1.344191
vt 0.282110 0.908884
vt 1.245866 0.953337
vt 0.918190 0.775522
vt 0.607755 0.819976
vt 0.001624 0.720847
vt 0.023042 3.213768
vt -0.333402 3.143360
vt -0.212242 0.678603
vt 0.631817 0.678603
vt 0.414232 3.143360
vt -0.049280 3.002544
vt 0.353709 0.594113
vt 0.862040 0.594113
vt 0.790402 3.002544
vt 1.270651 2.932137
vt 1.150190 0.551869
vt 0.281700 0.551869
vt -0.169295 2.932137
vt 0.174202 3.002545
vt 0.487798 0.594113
vt 0.023042 0.213768
vt 0.503291 0.143360
vt 0.223166 1.080580
vt 0.637714 3.143360
vt 0.765906 0.678603
vt 0.289774 0.678603
vt 0.503291 3.143360
vt 0.837915 0.001624
vt 0.631817 -0.212242
vt 0.353709 -0.137960
vt 0.281700 0.150190
vt 0.487798 0.364056
vt 0.765906 0.289774
vt 0.627096 0.002545
vt 0.270651 -0.067863
vt 0.950720 0.002544
vt 1.414232 0.143360
vt 1.008483 1.080580
vt 0.637714 0.143360
vt 0.174202 0.002545
vt 0.008483 1.080580
vt 0.414232 0.143360
vt 0.757729 0.213768
vt 0.270651 0.932137
vt -0.209598 1.002544
vt 0.223166 2.080580
vt 0.058739 0.600116
vt 0.099528 1.438449
vt -0.068120 1.399522
vt -0.041850 0.576759
vt 0.958150 0.576759
vt 0.931880 1.399522
vt 0.747585 1.417664
vt 0.847573 0.587644
vt 0.559034 0.587644
vt 0.852921 1.417664
vt 0.657757 1.474731
vt 0.441935 0.621885
vt 0.837585 0.621885
vt 0.730939 1.474731
vt 0.898587 1.513658
vt 0.938174 0.645241
vt 0.828980 0.438449
vt 0.633816 0.495517
vt 0.900232 0.987017
vt 1.082882 1.495517
vt 1.048751 0.634356
vt 0.427570 0.634356
vt 0.633816 1.495517
vt 0.828980 1.438449
vt 0.544669 0.600116
vt 0.544669 0.058739
vt 0.610401 -0.041850
vt 0.559034 -0.152427
vt 0.441935 -0.162415
vt 0.376203 -0.061826
vt 0.427570 0.048751
vt 0.898587 0.513658
vt 0.730939 0.474731
vt 0.894578 0.987017
vt 0.747585 0.417664
vt 0.931880 0.399522
vt 0.082882 0.495517
vt -0.101413 0.513658
vt -0.105422 0.987017
vt 1.099528 0.438449
vt 0.657757 0.474731
vt 0.852921 0.417664
vt 0.076835 0.130156
vt -0.716507 0.290436
vt -0.687732 0.486857
vt 0.094100 0.248009
vt 0.094100 0.250066
vt -0.687732 0.592103
vt -0.584320 0.719437
vt 0.156148 0.326466
vt -0.509683 0.893821
vt 0.200930 0.431097
vt 0.200930 0.275722
vt -0.509683 0.533046
vt -0.538458 0.336625
vt 0.183665 0.157870
vt 0.283493 0.639153
vt 0.358130 0.813537
vt -0.084800 1.024798
vt 0.183665 0.459327
vt -0.538458 0.940871
vt -0.641870 0.813537
vt 0.121618 0.382926
vt -0.716507 0.639153
vt 0.076835 0.278296
vt 0.130156 0.278296
vt 0.248009 0.250066
vt 0.320792 0.326466
vt 0.275722 0.431097
vt 0.157870 0.459327
vt 0.085087 0.382926
vt 0.461542 0.336625
vt 0.490317 0.533046
vt -0.084800 0.542719
vt 0.415680 0.719437
vt 0.312268 0.592103
vt 0.358130 0.215320
vt 0.486857 0.592103
vt 0.290436 0.639153
vt 0.542719 1.024798
vt 0.490317 0.893821
vn -0.2825 -0.0494 0.9580
vn -0.9709 -0.0494 0.2343
vn -0.6884 -0.0494 -0.7237
vn 0.2825 -0.0494 -0.9580
vn 0.5210 0.6547 0.5477
vn 0.9709 -0.0494 -0.2343
vn 0.6884 -0.0494 0.7237
vn 0.0000 -1.0000 0.0000
vn 0.2138 0.6547 -0.7251
vn -0.7348 0.6547 0.1773
vn 0.7348 0.6547 -0.1773
vn -0.2138 0.6547 0.7251
vn -0.5210 0.6547 -0.5477
vn -0.0217 -0.4018 0.9155
vn -0.8654 -0.0801 0.4946
vn -0.8606 0.2417 -0.4483
vn -0.0120 0.2417 -0.9703
vn 0.8544 0.0746 0.5142
vn 0.8317 -0.0801 -0.5494
vn 0.8269 -0.4018 0.3935
vn -0.1954 -0.9279 -0.3176
vn 0.0825 0.6667 -0.7407
vn -0.7028 0.3706 0.6072
vn 0.8589 0.3706 -0.3535
vn 0.0736 0.0746 0.9945
vn -0.6984 0.6667 -0.2604
vn 0.7713 -0.5874 -0.2449
vn 0.8327 0.0059 0.5537
vn 0.0384 0.5328 0.8454
vn -0.8173 0.4664 0.3384
vn 0.0289 -0.3366 -0.9412
vn -0.8787 -0.1269 -0.4602
vn -0.0844 -0.6538 -0.7519
vn -0.2879 -0.7580 0.5853
vn -0.6716 0.7341 0.1008
vn 0.9053 0.2940 0.3065
vn -0.7302 0.1670 -0.6625
vn 0.8467 -0.2731 -0.4567
vn 0.1462 0.7975 0.5853
vn -0.8113 -0.4801 -0.3336
vn -0.2044 0.0012 -0.9789
vn 0.6459 0.4009 -0.6497
vn 0.8992 0.3315 0.2856
vn -0.7927 0.0463 0.6078
vn 0.3169 -0.1401 0.9380
vn -0.5503 -0.5511 0.6273
vn 0.6150 -0.7580 -0.2172
vn 0.1827 0.8958 0.4052
vn -0.5978 0.5466 -0.5864
vn -0.2074 0.4459 0.8707
vn -0.9880 0.0966 -0.1208
vn -0.0125 0.9462 -0.3234
vn 0.4098 0.1201 0.9042
vn -0.5817 -0.0044 0.8134
vn -0.9869 -0.1290 -0.0967
vn -0.4082 -0.1290 -0.9037
vn 0.7384 0.6743 -0.0104
vn 0.5838 -0.0044 -0.8119
vn 0.9879 0.1201 0.0981
vn 0.2289 -0.9595 0.1641
vn -0.4466 0.2463 -0.8601
vn -0.6211 0.4603 0.6343
vn 0.4015 0.4603 -0.7918
vn 0.2270 0.6743 0.7027
vn -0.9580 0.2463 -0.1471
vn 0.7169 0.0290 0.6966
vn -0.2379 -0.0686 0.9689
vn -0.9505 -0.1668 0.2620
vn -0.6933 -0.1668 -0.7011
vn 0.7578 0.5913 -0.2760
vn 0.2769 -0.0686 -0.9585
vn 0.9687 0.0290 -0.2463
vn 0.2721 -0.9595 0.0727
vn -0.7266 0.1403 -0.6725
vn -0.3423 0.3658 0.8655
vn 0.1348 0.3658 -0.9209
vn 0.5192 0.5913 0.6171
vn -0.9652 0.1403 0.2206
vn 0.7694 -0.2887 -0.5698
vn 0.8369 -0.3473 0.4230
vn 0.0449 -0.1351 0.9898
vn -0.8147 0.1357 0.5639
vn 0.0216 0.3474 -0.9375
vn -0.8822 0.1943 -0.4289
vn -0.0902 -0.0179 -0.9958
vn -0.2834 -0.9583 -0.0373
vn -0.6708 0.4942 0.5531
vn 0.9077 0.0326 0.4184
vn -0.7353 0.5502 -0.3957
vn 0.8431 0.0886 -0.5304
vn 0.1507 0.2354 0.9602
vn -0.4342 -0.8884 0.1492
vn -0.0613 -0.6619 -0.7471
vn 0.4409 0.1892 -0.8774
vn 0.5703 0.8139 -0.1114
vn -0.6155 -0.0745 0.7846
vn 0.1974 0.5874 0.7849
vn -0.3048 -0.2637 0.9152
vn 0.8522 -0.4667 0.2366
vn 0.2209 0.9553 -0.1965
vn -0.3828 -0.4551 -0.8040
vn -0.1355 0.7389 0.6601
vn -0.7391 -0.6715 0.0526
vn 0.0972 0.3583 -0.9285
usemtl None
s off
f 1/1/1 2/2/1 4/3/1 3/4/1
f 3/5/2 4/6/2 6/7/2 5/8/2
f 5/9/3 6/10/3 8/11/3 7/12/3
f 7/12/4 8/11/4 10/13/4 9/14/4
f 2/15/5 12/16/5 13/17/5
f 9/18/6 10/19/6 12/20/6 11/21/6
f 11/22/7 12/23/7 2/2/7 1/1/7
f 1/24/8 3/25/8 5/26/8 7/27/8 9/28/8 11/29/8
f 10/30/9 8/31/9 13/32/9
f 6/33/10 4/34/10 13/35/10
f 12/36/11 10/37/11 13/35/11
f 4/38/12 2/39/12 13/40/12
f 8/41/13 6/42/13 13/43/13
f 14/44/14 15/45/14 17/46/14 16/47/14
f 16/48/15 17/49/15 19/50/15 18/51/15
f 18/51/16 19/50/16 21/52/16 20/53/16
f 20/54/17 21/55/17 23/56/17 22/57/17
f 15/58/18 25/59/18 26/60/18
f 22/61/19 23/62/19 25/63/19 24/64/19
f 24/64/20 25/63/20 15/65/20 14/66/20
f 14/67/21 16/68/21 18/69/21 20/70/21 22/71/21 24/72/21
f 23/73/22 21/74/22 26/75/22
f 19/76/23 17/77/23 26/78/23
f 25/79/24 23/80/24 26/78/24
f 17/81/25 15/82/25 26/83/25
f 21/84/26 19/85/26 26/86/26
f 27/87/27 28/88/27 30/89/27 29/90/27
f 29/91/28 30/92/28 32/93/28 31/94/28
f 31/95/29 32/96/29 34/97/29 33/98/29
f 33/99/30 34/100/30 36/101/30 35/102/30
f 28/103/31 38/104/31 39/105/31
f 35/102/32 36/101/32 38/106/32 37/107/32
f 37/108/33 38/109/33 28/110/33 27/111/33
f 27/112/34 29/113/34 31/114/34 33/115/34 35/116/34 37/117/34
f 36/118/35 34/119/35 39/120/35
f 32/93/36 30/92/36 39/121/36
f 38/122/37 36/123/37 39/124/37
f 30/125/38 28/126/38 39/124/38
f 34/127/39 32/128/39 39/129/39
f 40/130/40 41/131/40 43/132/40 42/133/40
f 42/134/41 43/135/41 45/136/41 44/137/41
f 44/137/42 45/136/42 47/138/42 46/139/42
f 46/140/43 47/141/43 49/142/43 48/143/43
f 41/144/44 51/145/44 52/146/44
f 48/147/45 49/148/45 51/149/45 50/150/45
f 50/150/46 51/149/46 41/151/46 40/152/46
f 40/153/47 42/154/47 44/155/47 46/156/47 48/157/47 50/158/47
f 49/159/48 47/160/48 52/161/48
f 45/162/49 43/163/49 52/146/49
f 51/164/50 49/165/50 52/166/50
f 43/163/51 41/144/51 52/146/51
f 47/167/52 45/168/52 52/169/52
f 53/170/53 54/171/53 56/172/53 55/173/53
f 55/173/54 56/172/54 58/174/54 57/175/54
f 57/176/55 58/177/55 60/178/55 59/179/55
f 59/180/56 60/181/56 62/182/56 61/183/56
f 54/184/57 64/185/57 65/186/57
f 61/183/58 62/182/58 64/187/58 63/188/58
f 63/189/59 64/190/59 54/191/59 53/192/59
f 53/193/60 55/194/60 57/195/60 59/196/60 61/197/60 63/198/60
f 62/199/61 60/200/61 65/201/61
f 58/202/62 56/203/62 65/204/62
f 64/205/63 62/199/63 65/201/63
f 56/203/64 54/206/64 65/204/64
f 60/207/65 58/208/65 65/186/65
f 66/209/66 67/210/66 69/211/66 68/212/66
f 68/213/67 69/214/67 71/215/67 70/216/67
f 70/217/68 71/218/68 73/219/68 72/220/68
f 72/221/69 73/222/69 75/223/69 74/224/69
f 67/225/70 77/226/70 78/227/70
f 74/224/71 75/223/71 77/228/71 76/229/71
f 76/230/72 77/231/72 67/210/72 66/209/72
f 66/232/73 68/233/73 70/234/73 72/235/73 74/236/73 76/237/73
f 75/238/74 73/239/74 78/227/74
f 71/240/75 69/241/75 78/242/75
f 77/243/76 75/244/76 78/245/76
f 69/246/77 67/247/77 78/245/77
f 73/248/78 71/249/78 78/250/78
f 79/251/79 80/252/79 82/253/79 81/254/79
f 81/255/80 82/256/80 84/257/80 83/258/80
f 83/259/81 84/260/81 86/261/81 85/262/81
f 85/263/82 86/264/82 88/265/82 87/266/82
f 80/267/83 90/268/83 91/269/83
f 87/266/84 88/265/84 90/270/84 89/271/84
f 89/272/85 90/273/85 80/274/85 79/275/85
f 79/276/86 81/277/86 83/278/86 85/279/86 87/280/86 89/281/86
f 88/282/87 86/283/87 91/284/87
f 84/285/88 82/286/88 91/284/88
f 90/287/89 88/288/89 91/289/89
f 82/286/90 80/290/90 91/284/90
f 86/291/91 84/292/91 91/269/91
f 92/293/92 93/294/92 95/295/92 94/296/92
f 94/297/93 95/298/93 97/299/93 96/300/93
f 96/300/94 97/299/94 99/301/94 98/302/94
f 98/303/95 99/304/95 101/305/95 100/306/95
f 93/307/96 103/308/96 104/309/96
f 100/310/97 101/311/97 103/312/97 102/313/97
f 102/313/98 103/312/98 93/314/98 92/315/98
f 92/316/99 94/317/99 96/318/99 98/319/99 100/320/99 102/321/99
f 101/322/100 99/323/100 104/324/100
f 97/325/101 95/326/101 104/309/101
f 103/327/102 101/322/102 104/324/102
f 95/328/103 93/329/103 104/330/103
f 99/331/104 97/325/104 104/309/104
